curPos:  15   tarPos -16 dst2go -31   sIint 573605 cn 573605.00 c0 956008.37 n  2 st2Stop   0
curPos:  14   tarPos -16 dst2go -30   sIint 446137 cn 446137.21 c0 956008.37 n  3 st2Stop   1 
curPos:  13   tarPos -16 dst2go -29   sIint 377500 cn 377500.71 c0 956008.37 n  4 st2Stop   2
curPos:  12   tarPos -16 dst2go -28   sIint 333088 cn 333088.87 c0 956008.37 n  5 st2Stop   3
curPos:  11   tarPos -16 dst2go -27   sIint 301366 cn 301366.12 c0 956008.37 n  6 st2Stop   4
curPos:  10   tarPos -16 dst2go -26   sIint 277256 cn 277256.84 c0 956008.37 n  7 st2Stop   5
curPos:  9    tarPos -16 dst2go -25   sIint 258135 cn 258135.68 c0 956008.37 n  8 st2Stop   6
curPos:  8    tarPos -16 dst2go -24   sIint 242491 cn 242491.09 c0 956008.37 n  9 st2Stop   7
curPos:  7    tarPos -16 dst2go -23   sIint 229383 cn 229383.46 c0 956008.37 n  10 st2Stop  8
curPos:  6    tarPos -16 dst2go -22   sIint 218194 cn 218194.03 c0 956008.37 n  11 st2Stop  9
curPos:  5    tarPos -16 dst2go -21   sIint 208496 cn 208496.51 c0 956008.37 n  12 st2Stop  10
curPos:  4    tarPos -16 dst2go -20   sIint 199986 cn 199986.45 c0 956008.37 n  13 st2Stop  11
curPos:  3    tarPos -16 dst2go -19   sIint 192439 cn 192439.79 c0 956008.37 n  14 st2Stop  12
curPos:  2    tarPos -16 dst2go -18   sIint 185687 cn 185687.53 c0 956008.37 n  15 st2Stop  13
curPos:  1    tarPos -16 dst2go -17   sIint 179599 cn 179599.42 c0 956008.37 n  16 st2Stop  14
curPos:  0    tarPos -16 dst2go -16   sIint 174073 cn 174073.28 c0 956008.37 n  17 st2Stop  15
curPos: -1    tarPos -16 dst2go -15   sIint 179599 cn 179599.42 c0 956008.37 n -15 st2Stop  16
curPos: -2    tarPos -16 dst2go -14   sIint 185687 cn 185687.53 c0 956008.37 n -14 st2Stop  15
curPos: -3    tarPos -16 dst2go -13   sIint 192439 cn 192439.81 c0 956008.37 n -13 st2Stop  14
curPos: -4    tarPos -16 dst2go -12   sIint 199986 cn 199986.46 c0 956008.37 n -12 st2Stop  13
curPos: -5    tarPos -16 dst2go -11   sIint 208496 cn 208496.53 c0 956008.37 n -11 st2Stop  12
curPos: -6    tarPos -16 dst2go -10   sIint 218194 cn 218194.04 c0 956008.37 n -10 st2Stop  11
curPos: -7    tarPos -16 dst2go -9    sIint 229383 cn 229383.48 c0 956008.37 n -9 st2Stop   10
curPos: -8    tarPos -16 dst2go -8    sIint 242491 cn 242491.10 c0 956008.37 n -8 st2Stop   9
curPos: -9    tarPos -16 dst2go -7    sIint 258135 cn 258135.70 c0 956008.37 n -7 st2Stop   8
curPos: -10   tarPos -16 dst2go -6    sIint 277256 cn 277256.87 c0 956008.37 n -6 st2Stop   7
curPos: -11   tarPos -16 dst2go -5    sIint 301366 cn 301366.15 c0 956008.37 n -5 st2Stop   6
curPos: -12   tarPos -16 dst2go -4    sIint 333088 cn 333088.90 c0 956008.37 n -4 st2Stop   5
curPos: -13   tarPos -16 dst2go -3    sIint 377500 cn 377500.75 c0 956008.37 n -3 st2Stop   4
curPos: -14   tarPos -16 dst2go -2    sIint 446137 cn 446137.25 c0 956008.37 n -2 st2Stop   3
curPos: -15   tarPos -16 dst2go -1    sIint 573605 cn 573605.06 c0 956008.37 n -1 st2Stop   2
